<?xml version="1.0" encoding="iso-8859-1"?>
<!DOCTYPE svg PUBLIC "-//W3C//DTD SVG 1.1//EN" "http://www.w3.org/Graphics/SVG/1.1/DTD/svg11.dtd">
<svg  version="1.1" xmlns="http://www.w3.org/2000/svg" xmlns:xlink="http://www.w3.org/1999/xlink" x="0px" y="0px" width="512px"
	 height="512px" viewBox="0 0 512 512" enable-background="new 0 0 512 512" xml:space="preserve"><g id="e6c6b53d3c8160b22dad35a0f70ce2e6"><path display="inline" d="M192.125,319.875h127.75v21.292h-127.75V319.875z M192.125,298.583h127.75v-21.291h-127.75V298.583z
		 M277.292,192.125h-85.167v21.292h85.167V192.125z M192.125,256h127.75v-21.292h-127.75V256z M511.5,256
		c0,141.107-114.393,255.5-255.5,255.5S0.5,397.107,0.5,256S114.893,0.5,256,0.5S511.5,114.893,511.5,256z M362.458,213.417
		l-79.087-79.087h-133.83v243.34h212.917V213.417z"></path></g></svg>