<?xml version="1.0" encoding="utf-8"?>
<!-- Generator: Adobe Illustrator 16.0.3, SVG Export Plug-In . SVG Version: 6.00 Build 0)  -->
<!DOCTYPE svg PUBLIC "-//W3C//DTD SVG 1.1//EN" "http://www.w3.org/Graphics/SVG/1.1/DTD/svg11.dtd">
<svg version="1.1" id="Layer_1" xmlns="http://www.w3.org/2000/svg" xmlns:xlink="http://www.w3.org/1999/xlink" x="0px" y="0px"
	 width="60.754px" height="129px" viewBox="0 -10 60.754 129" enable-background="new 0 -10 60.754 129" xml:space="preserve">
<g>
	<polygon fill="#BE202E" points="0,-10 0,119 30.378,92.883 60.754,119 60.754,-10 	"/>
	<path fill="#EEEEEE" d="M40.98,74.852H30.378c-6.507,0-11.783-5.276-11.783-11.783c0-6.507,5.274-11.783,11.783-11.783
		c6.506,0,11.782,5.275,11.782,11.783c0,1.301-1.055,2.356-2.357,2.356h-9.425c-1.302,0-2.356-1.054-2.356-2.356
		c0-1.301,1.055-2.355,2.356-2.355l5.396-0.011c-0.912-2.074-2.982-3.523-5.396-3.523c-3.253,0-5.892,2.636-5.892,5.891
		c0,3.253,2.639,5.892,5.892,5.892H40.98c3.254,0,5.892-2.639,5.894-5.892c-0.002-9.11-7.388-16.495-16.496-16.495
		c-9.11,0-16.496,7.384-16.496,16.495c0,9.107,7.386,16.492,16.496,16.494h8.838c1.626,0,2.944,1.32,2.944,2.944
		c0,1.625-1.318,2.946-2.944,2.946h-8.839C18.014,85.452,7.99,75.432,7.99,63.068s10.024-22.387,22.388-22.387
		c12.363,0,22.386,10.024,22.386,22.387C52.764,69.575,47.49,74.852,40.98,74.852z"/>
</g>
</svg>
